{
  "name": "video",
  "title": "Vidéo",
  "description": "Module permettant d'ajouter une vidéo hébergée sur youtube ou autre",
  "hidden": false,
  "fields": {
    "videoType": {
      "type": "text",
      "value": "youtube"
    },
    "videoId": {
      "type": "text",
      "value": "5lASkq5RWNE"
    },
    "title": {
      "type": "text",
      "value": "<h5>Module vidéo</h5>"
    },
    "content": {
      "type": "text",
      "value": "<p>Lorem ipsum dolor sit amet, consectetur adipisicing elit. Amet architecto assumenda consequuntur esse eum facere, illum libero molestiae nam nihil nulla pariatur quo saepe sequi sint, vitae voluptates voluptatum. </p>"
    }
  }
}